module modernc.org/tcl9.0

go 1.21

require (
	github.com/evilsocket/islazy v1.11.0
	modernc.org/libc v1.61.4
	modernc.org/libtcl9.0 v0.16.0
)

require (
	github.com/dustin/go-humanize v1.0.1 // indirect
	github.com/google/uuid v1.6.0 // indirect
	github.com/mattn/go-isatty v0.0.20 // indirect
	github.com/ncruces/go-strftime v0.1.9 // indirect
	github.com/remyoudompheng/bigfft v0.0.0-20230129092748-24d4a6f8daec // indirect
	golang.org/x/exp v0.0.0-20230315142452-642cacee5cc0 // indirect
	golang.org/x/sys v0.26.0 // indirect
	modernc.org/libz v0.16.10 // indirect
	modernc.org/mathutil v1.6.0 // indirect
	modernc.org/memory v1.8.0 // indirect
)
